Data Vis - Final - rich posert - grad
…
velocity

heading

Unfortunately (or perhaps fortunately, if you care about your privacy),
everything but timestamp, lat, long, and accuracy appear to be entirely
NA or NULL.

Let’s check if any of this data is not NULL

> activity_tibble <- tibble(location = location_json$locations$activity) %>%
    unnest(location) %>%
    unnest(activity)
> activity_tibble
# A tibble: 2,944,923 x 3
   timestampMs   type  confidence
   <chr>         <chr>      <int>
 1 1348124094363 STILL        100
 2 1348124189449 STILL        100
 3 1348124248936 STILL        100
 4 1348124429120 STILL        100
 5 1348124609637 STILL        100
 6 1348124789818 STILL        100
 7 1348125211008 STILL        100
 8 1348125391200 STILL        100
 9 1348125571406 STILL        100
10 1348125787167 STILL        100
# ... with 2,944,913 more rows
…
